{
  "cities": [
    {
      "name": "Москва",
      "region": "Россия",
      "lat": 55.753215,
      "lon": 37.622504,
      "temp": 12.06,
      "id": 3
    },
    {
      "name": "Казань",
      "region": "Республика Татарстан, Россия",
      "lat": 55.796289,
      "lon": 49.108795,
      "temp": 10.65,
      "id": 4
    },
    {
      "name": "Екатеринбург",
      "region": "Свердловская область, Россия",
      "lat": 56.838011,
      "lon": 60.597465,
      "temp": 17.26,
      "id": 5
    },
    {
      "name": "Уфа",
      "region": "Республика Башкортостан, Россия",
      "lat": 54.735147,
      "lon": 55.958727,
      "temp": 22.41,
      "id": 6
    },
    {
      "name": "Нью-Йорк",
      "region": "Нью-Йорк-Каунти, Нью-Йорк, Соединенные Штаты Америки",
      "lat": 40.71598,
      "lon": -74.002881,
      "temp": 17.25,
      "id": 7
    }
  ]
}